,fs-large-coeff,fs-most-corr,fs-best-train,fs-best-cv,be-small-coeff,be-least-corr,be-best-train,be-best-cv,sm-lasso,sm-enet
mse_true,0.9279524956310511,0.9279524956310511,0.9279524956310511,0.9279524956310511,0.9279524956310511,0.9279524956310511,0.9279524956310511,0.9279524956310511,0.9279524956310511,0.9279524956310511
mse_estimate,3.239304937790889e+16,3.239304937790889e+16,3.239304937790889e+16,3.233543447739219e+16,3.239304937790889e+16,3.239304937790889e+16,3.239304937790889e+16,3.253248210459004e+16,2.782825945302452e+16,3.1207073138574816e+16
mse_diff,3.239304937790889e+16,3.239304937790889e+16,3.239304937790889e+16,3.233543447739219e+16,3.239304937790889e+16,3.239304937790889e+16,3.239304937790889e+16,3.253248210459004e+16,2.782825945302452e+16,3.1207073138574816e+16
all,100,100,100,100,100,100,100,100,100,100
true,60,60,60,60,60,60,60,60,60,60
selected,1,1,1,4,1,1,1,2,100,100
tp,1,1,1,4,1,1,1,2,60,60
fp,0,0,0,0,0,0,0,0,40,40
fn,59,59,59,56,59,59,59,58,0,0
tn,40,40,40,40,40,40,40,40,0,0
n_samples,1000,1000,1000,1000,1000,1000,1000,1000,1000,1000
n_features,100,100,100,100,100,100,100,100,100,100
n_significant,60,60,60,60,60,60,60,60,60,60
n_independent,0,0,0,0,0,0,0,0,0,0
gen_model,Cox,Cox,Cox,Cox,Cox,Cox,Cox,Cox,Cox,Cox
noise_mean,0.0,0.0,0.0,0.0,0.0,0.0,0.0,0.0,0.0,0.0
noise_std,1.0,1.0,1.0,1.0,1.0,1.0,1.0,1.0,1.0,1.0
feature_mean,0.0,0.0,0.0,0.0,0.0,0.0,0.0,0.0,0.0,0.0
feature_std,1.0,1.0,1.0,1.0,1.0,1.0,1.0,1.0,1.0,1.0
covariance,0.5,0.5,0.5,0.5,0.5,0.5,0.5,0.5,0.5,0.5
predictor,LF,LF,LF,LF,LF,LF,LF,LF,LF,LF
selection_method,fs,fs,fs,fs,be,be,be,be,sm,sm
seed,22,22,22,22,22,22,22,22,22,22
name,_20210326_102823_,_20210326_102823_,_20210326_102823_,_20210326_102823_,_20210326_103043_,_20210326_103043_,_20210326_103043_,_20210326_103043_,_20210326_103314_,_20210326_103314_
out_file,/home/schimdmi/src/rfe-evaluation/results/fs-feature-noise/cox-gen/lf-pred/only-correlated/f100_s60_i0/fs__.csv,/home/schimdmi/src/rfe-evaluation/results/fs-feature-noise/cox-gen/lf-pred/only-correlated/f100_s60_i0/fs__.csv,/home/schimdmi/src/rfe-evaluation/results/fs-feature-noise/cox-gen/lf-pred/only-correlated/f100_s60_i0/fs__.csv,/home/schimdmi/src/rfe-evaluation/results/fs-feature-noise/cox-gen/lf-pred/only-correlated/f100_s60_i0/fs__.csv,/home/schimdmi/src/rfe-evaluation/results/fs-feature-noise/cox-gen/lf-pred/only-correlated/f100_s60_i0/be__.csv,/home/schimdmi/src/rfe-evaluation/results/fs-feature-noise/cox-gen/lf-pred/only-correlated/f100_s60_i0/be__.csv,/home/schimdmi/src/rfe-evaluation/results/fs-feature-noise/cox-gen/lf-pred/only-correlated/f100_s60_i0/be__.csv,/home/schimdmi/src/rfe-evaluation/results/fs-feature-noise/cox-gen/lf-pred/only-correlated/f100_s60_i0/be__.csv,/home/schimdmi/src/rfe-evaluation/results/fs-feature-noise/cox-gen/lf-pred/only-correlated/f100_s60_i0/sm__.csv,/home/schimdmi/src/rfe-evaluation/results/fs-feature-noise/cox-gen/lf-pred/only-correlated/f100_s60_i0/sm__.csv
dump_file,/home/schimdmi/src/rfe-evaluation/results/fs-feature-noise/cox-gen/lf-pred/only-correlated/f100_s60_i0/fs__.bin,/home/schimdmi/src/rfe-evaluation/results/fs-feature-noise/cox-gen/lf-pred/only-correlated/f100_s60_i0/fs__.bin,/home/schimdmi/src/rfe-evaluation/results/fs-feature-noise/cox-gen/lf-pred/only-correlated/f100_s60_i0/fs__.bin,/home/schimdmi/src/rfe-evaluation/results/fs-feature-noise/cox-gen/lf-pred/only-correlated/f100_s60_i0/fs__.bin,/home/schimdmi/src/rfe-evaluation/results/fs-feature-noise/cox-gen/lf-pred/only-correlated/f100_s60_i0/be__.bin,/home/schimdmi/src/rfe-evaluation/results/fs-feature-noise/cox-gen/lf-pred/only-correlated/f100_s60_i0/be__.bin,/home/schimdmi/src/rfe-evaluation/results/fs-feature-noise/cox-gen/lf-pred/only-correlated/f100_s60_i0/be__.bin,/home/schimdmi/src/rfe-evaluation/results/fs-feature-noise/cox-gen/lf-pred/only-correlated/f100_s60_i0/be__.bin,/home/schimdmi/src/rfe-evaluation/results/fs-feature-noise/cox-gen/lf-pred/only-correlated/f100_s60_i0/sm__.bin,/home/schimdmi/src/rfe-evaluation/results/fs-feature-noise/cox-gen/lf-pred/only-correlated/f100_s60_i0/sm__.bin
verbosity,1,1,1,1,1,1,1,1,1,1
x_file,,,,,,,,,,
y_file,,,,,,,,,,
