,fs-large-coeff,fs-most-corr,fs-best-train,fs-best-cv,be-small-coeff,be-least-corr,be-best-train,be-best-cv,sm-lasso,sm-enet
mse_true,29.11832750409691,29.11832750409691,29.11832750409691,29.11832750409691,29.11832750409691,29.11832750409691,29.11832750409691,29.11832750409691,29.11832750409691,29.11832750409691
mse_estimate,25.685852580263308,26.213461814617414,25.83776728338761,25.97382242578747,25.685852580263308,26.213461814617414,27.88322667309538,25.85191361422848,26.98878499592839,26.805870636921508
mse_diff,3.4324749238336025,2.9048656894794966,3.280560220709301,3.1445050783094395,3.4324749238336025,2.9048656894794966,1.2351008310015317,3.2664138898684314,2.1295425081685195,2.3124568671754027
all,30,30,30,30,30,30,30,30,30,30
true,30,30,30,30,30,30,30,30,30,30
selected,14,13,13,17,14,13,9,20,14,21
tp,14,13,13,17,14,13,9,20,14,21
fp,0,0,0,0,0,0,0,0,0,0
fn,16,17,17,13,16,17,21,10,16,9
tn,0,0,0,0,0,0,0,0,0,0
n_samples,200,200,200,200,200,200,200,200,200,200
n_features,30,30,30,30,30,30,30,30,30,30
n_significant,30,30,30,30,30,30,30,30,30,30
n_independent,0,0,0,0,0,0,0,0,0,0
gen_model,LF,LF,LF,LF,LF,LF,LF,LF,LF,LF
noise_mean,0.0,0.0,0.0,0.0,0.0,0.0,0.0,0.0,0.0,0.0
noise_std,5.0,5.0,5.0,5.0,5.0,5.0,5.0,5.0,5.0,5.0
feature_mean,0.0,0.0,0.0,0.0,0.0,0.0,0.0,0.0,0.0,0.0
feature_std,1.0,1.0,1.0,1.0,1.0,1.0,1.0,1.0,1.0,1.0
covariance,0.5,0.5,0.5,0.5,0.5,0.5,0.5,0.5,0.5,0.5
predictor,LF,LF,LF,LF,LF,LF,LF,LF,LF,LF
selection_method,fs,fs,fs,fs,be,be,be,be,sm,sm
seed,22,22,22,22,22,22,22,22,22,22
name,_20210210_094656_,_20210210_094656_,_20210210_094656_,_20210210_094656_,_20210210_094705_,_20210210_094705_,_20210210_094705_,_20210210_094705_,_20210210_094713_,_20210210_094713_
out_file,/home/schimdmi/tmp/s5/fs__.csv,/home/schimdmi/tmp/s5/fs__.csv,/home/schimdmi/tmp/s5/fs__.csv,/home/schimdmi/tmp/s5/fs__.csv,/home/schimdmi/tmp/s5/be__.csv,/home/schimdmi/tmp/s5/be__.csv,/home/schimdmi/tmp/s5/be__.csv,/home/schimdmi/tmp/s5/be__.csv,/home/schimdmi/tmp/s5/sm__.csv,/home/schimdmi/tmp/s5/sm__.csv
dump_file,/home/schimdmi/tmp/s5/fs__.bin,/home/schimdmi/tmp/s5/fs__.bin,/home/schimdmi/tmp/s5/fs__.bin,/home/schimdmi/tmp/s5/fs__.bin,/home/schimdmi/tmp/s5/be__.bin,/home/schimdmi/tmp/s5/be__.bin,/home/schimdmi/tmp/s5/be__.bin,/home/schimdmi/tmp/s5/be__.bin,/home/schimdmi/tmp/s5/sm__.bin,/home/schimdmi/tmp/s5/sm__.bin
verbosity,1,1,1,1,1,1,1,1,1,1
x_file,,,,,,,,,,
y_file,,,,,,,,,,
