,fs-large-coeff,fs-most-corr,fs-best-train,fs-best-cv,be-small-coeff,be-least-corr,be-best-train,be-best-cv,sm-lasso,sm-enet
mse_true,0.0,0.0,0.0,0.0,0.0,0.0,0.0,0.0,0.0,0.0
mse_estimate,1.675540606761627,1.8037021761016225,1.8352449618891553,1.613187389474665,1.2619352875209144,1.5134918804682713,1.374957804685119,1.6205284393713117,4.7517768638988124e-07,3.9526854257998e-07
mse_diff,1.675540606761627,1.8037021761016225,1.8352449618891553,1.613187389474665,1.2619352875209144,1.5134918804682713,1.374957804685119,1.6205284393713117,4.7517768638988124e-07,3.9526854257998e-07
all,30,30,30,30,30,30,30,30,30,30
true,30,30,30,30,30,30,30,30,30,30
selected,17,22,11,6,8,13,8,6,30,30
tp,17,22,11,6,8,13,8,6,30,30
fp,0,0,0,0,0,0,0,0,0,0
fn,13,8,19,24,22,17,22,24,0,0
tn,0,0,0,0,0,0,0,0,0,0
n_samples,200,200,200,200,200,200,200,200,200,200
n_features,30,30,30,30,30,30,30,30,30,30
n_significant,30,30,30,30,30,30,30,30,30,30
n_independent,0,0,0,0,0,0,0,0,0,0
gen_model,LF,LF,LF,LF,LF,LF,LF,LF,LF,LF
noise_mean,0.0,0.0,0.0,0.0,0.0,0.0,0.0,0.0,0.0,0.0
noise_std,0.0,0.0,0.0,0.0,0.0,0.0,0.0,0.0,0.0,0.0
feature_mean,0.0,0.0,0.0,0.0,0.0,0.0,0.0,0.0,0.0,0.0
feature_std,1.0,1.0,1.0,1.0,1.0,1.0,1.0,1.0,1.0,1.0
covariance,0.0,0.0,0.0,0.0,0.0,0.0,0.0,0.0,0.0,0.0
predictor,RF,RF,RF,RF,RF,RF,RF,RF,RF,RF
selection_method,fs,fs,fs,fs,be,be,be,be,sm,sm
seed,22,22,22,22,22,22,22,22,22,22
name,_20210319_085234_,_20210319_085234_,_20210319_085234_,_20210319_085234_,_20210319_085418_,_20210319_085418_,_20210319_085418_,_20210319_085418_,_20210319_085553_,_20210319_085553_
out_file,/home/schimdmi/tmp/rf/f30_s30/fs__.csv,/home/schimdmi/tmp/rf/f30_s30/fs__.csv,/home/schimdmi/tmp/rf/f30_s30/fs__.csv,/home/schimdmi/tmp/rf/f30_s30/fs__.csv,/home/schimdmi/tmp/rf/f30_s30/be__.csv,/home/schimdmi/tmp/rf/f30_s30/be__.csv,/home/schimdmi/tmp/rf/f30_s30/be__.csv,/home/schimdmi/tmp/rf/f30_s30/be__.csv,/home/schimdmi/tmp/rf/f30_s30/sm__.csv,/home/schimdmi/tmp/rf/f30_s30/sm__.csv
dump_file,/home/schimdmi/tmp/rf/f30_s30/fs__.bin,/home/schimdmi/tmp/rf/f30_s30/fs__.bin,/home/schimdmi/tmp/rf/f30_s30/fs__.bin,/home/schimdmi/tmp/rf/f30_s30/fs__.bin,/home/schimdmi/tmp/rf/f30_s30/be__.bin,/home/schimdmi/tmp/rf/f30_s30/be__.bin,/home/schimdmi/tmp/rf/f30_s30/be__.bin,/home/schimdmi/tmp/rf/f30_s30/be__.bin,/home/schimdmi/tmp/rf/f30_s30/sm__.bin,/home/schimdmi/tmp/rf/f30_s30/sm__.bin
verbosity,1,1,1,1,1,1,1,1,1,1
x_file,,,,,,,,,,
y_file,,,,,,,,,,
