,fs-large-coeff,fs-most-corr,fs-best-train,fs-best-cv,be-small-coeff,be-least-corr,be-best-train,be-best-cv,sm-lasso,sm-enet
mse_true,0.9846593088781826,0.9846593088781826,0.9846593088781826,0.9846593088781826,0.9846593088781826,0.9846593088781826,0.9846593088781826,0.9846593088781826,0.9846593088781826,0.9846593088781826
mse_estimate,0.9023152473889711,0.9290948468820973,0.9079301000226878,0.9080585421072742,0.8944635936014846,0.934210497930759,0.8793196776429179,0.9534205799406301,0.8648464048573998,0.864845818579071
mse_diff,0.08234406148921158,0.055564461996085335,0.07672920885549483,0.07660076677090843,0.09019571527669801,0.050448810947423595,0.1053396312352648,0.03123872893755253,0.11981290402078282,0.1198134902991117
all,100,100,100,100,100,100,100,100,100,100
true,30,30,30,30,30,30,30,30,30,30
selected,35,47,33,43,39,44,51,24,100,100
tp,25,24,25,24,25,24,26,24,30,30
fp,10,23,8,19,14,20,25,0,70,70
fn,5,6,5,6,5,6,4,6,0,0
tn,60,47,62,51,56,50,45,70,0,0
n_samples,1000,1000,1000,1000,1000,1000,1000,1000,1000,1000
n_features,100,100,100,100,100,100,100,100,100,100
n_significant,30,30,30,30,30,30,30,30,30,30
n_independent,70,70,70,70,70,70,70,70,70,70
gen_model,LF,LF,LF,LF,LF,LF,LF,LF,LF,LF
noise_mean,0.0,0.0,0.0,0.0,0.0,0.0,0.0,0.0,0.0,0.0
noise_std,1.0,1.0,1.0,1.0,1.0,1.0,1.0,1.0,1.0,1.0
feature_mean,0.0,0.0,0.0,0.0,0.0,0.0,0.0,0.0,0.0,0.0
feature_std,1.0,1.0,1.0,1.0,1.0,1.0,1.0,1.0,1.0,1.0
covariance,0.5,0.5,0.5,0.5,0.5,0.5,0.5,0.5,0.5,0.5
predictor,LF,LF,LF,LF,LF,LF,LF,LF,LF,LF
selection_method,fs,fs,fs,fs,be,be,be,be,sm,sm
seed,22,22,22,22,22,22,22,22,22,22
name,_20210225_112144_,_20210225_112144_,_20210225_112144_,_20210225_112144_,_20210225_112336_,_20210225_112336_,_20210225_112336_,_20210225_112336_,_20210225_112519_,_20210225_112519_
out_file,/home/schimdmi/src/rfe-evaluation/results/fs-feature-noise/lf-gen/lf-pred/f100_s30_i70/fs__.csv,/home/schimdmi/src/rfe-evaluation/results/fs-feature-noise/lf-gen/lf-pred/f100_s30_i70/fs__.csv,/home/schimdmi/src/rfe-evaluation/results/fs-feature-noise/lf-gen/lf-pred/f100_s30_i70/fs__.csv,/home/schimdmi/src/rfe-evaluation/results/fs-feature-noise/lf-gen/lf-pred/f100_s30_i70/fs__.csv,/home/schimdmi/src/rfe-evaluation/results/fs-feature-noise/lf-gen/lf-pred/f100_s30_i70/be__.csv,/home/schimdmi/src/rfe-evaluation/results/fs-feature-noise/lf-gen/lf-pred/f100_s30_i70/be__.csv,/home/schimdmi/src/rfe-evaluation/results/fs-feature-noise/lf-gen/lf-pred/f100_s30_i70/be__.csv,/home/schimdmi/src/rfe-evaluation/results/fs-feature-noise/lf-gen/lf-pred/f100_s30_i70/be__.csv,/home/schimdmi/src/rfe-evaluation/results/fs-feature-noise/lf-gen/lf-pred/f100_s30_i70/sm__.csv,/home/schimdmi/src/rfe-evaluation/results/fs-feature-noise/lf-gen/lf-pred/f100_s30_i70/sm__.csv
dump_file,/home/schimdmi/src/rfe-evaluation/results/fs-feature-noise/lf-gen/lf-pred/f100_s30_i70/fs__.bin,/home/schimdmi/src/rfe-evaluation/results/fs-feature-noise/lf-gen/lf-pred/f100_s30_i70/fs__.bin,/home/schimdmi/src/rfe-evaluation/results/fs-feature-noise/lf-gen/lf-pred/f100_s30_i70/fs__.bin,/home/schimdmi/src/rfe-evaluation/results/fs-feature-noise/lf-gen/lf-pred/f100_s30_i70/fs__.bin,/home/schimdmi/src/rfe-evaluation/results/fs-feature-noise/lf-gen/lf-pred/f100_s30_i70/be__.bin,/home/schimdmi/src/rfe-evaluation/results/fs-feature-noise/lf-gen/lf-pred/f100_s30_i70/be__.bin,/home/schimdmi/src/rfe-evaluation/results/fs-feature-noise/lf-gen/lf-pred/f100_s30_i70/be__.bin,/home/schimdmi/src/rfe-evaluation/results/fs-feature-noise/lf-gen/lf-pred/f100_s30_i70/be__.bin,/home/schimdmi/src/rfe-evaluation/results/fs-feature-noise/lf-gen/lf-pred/f100_s30_i70/sm__.bin,/home/schimdmi/src/rfe-evaluation/results/fs-feature-noise/lf-gen/lf-pred/f100_s30_i70/sm__.bin
verbosity,1,1,1,1,1,1,1,1,1,1
x_file,,,,,,,,,,
y_file,,,,,,,,,,
