,fs-large-coeff,fs-most-corr,fs-best-train,fs-best-cv,be-small-coeff,be-least-corr,be-best-train,be-best-cv,sm-lasso,sm-enet
mse_true,18.84536574506593,18.84536574506593,18.84536574506593,18.84536574506593,18.84536574506593,18.84536574506593,18.84536574506593,18.84536574506593,18.84536574506593,18.84536574506593
mse_estimate,1205446.8845550723,1263177.2135195017,1263177.2135195017,1263177.2135195017,1263177.2135195017,1247973.8579714494,1263177.2135195017,1380054.95243803,1054599.6988986207,1244952.0104127673
mse_diff,1205428.0391893273,1263158.3681537567,1263158.3681537567,1263158.3681537567,1263158.3681537567,1247955.0126057044,1263158.3681537567,1380036.107072285,1054580.8535328757,1244933.1650470223
all,30,30,30,30,30,30,30,30,30,30
true,15,15,15,15,15,15,15,15,15,15
selected,4,1,1,1,1,2,1,2,27,30
tp,2,1,1,1,1,2,1,2,12,15
fp,2,0,0,0,0,0,0,0,15,15
fn,13,14,14,14,14,13,14,13,3,0
tn,13,15,15,15,15,15,15,15,0,0
n_samples,200,200,200,200,200,200,200,200,200,200
n_features,30,30,30,30,30,30,30,30,30,30
n_significant,15,15,15,15,15,15,15,15,15,15
n_independent,15,15,15,15,15,15,15,15,15,15
gen_model,Cox,Cox,Cox,Cox,Cox,Cox,Cox,Cox,Cox,Cox
noise_mean,0.0,0.0,0.0,0.0,0.0,0.0,0.0,0.0,0.0,0.0
noise_std,4.0,4.0,4.0,4.0,4.0,4.0,4.0,4.0,4.0,4.0
feature_mean,0.0,0.0,0.0,0.0,0.0,0.0,0.0,0.0,0.0,0.0
feature_std,1.0,1.0,1.0,1.0,1.0,1.0,1.0,1.0,1.0,1.0
covariance,0.5,0.5,0.5,0.5,0.5,0.5,0.5,0.5,0.5,0.5
predictor,LF,LF,LF,LF,LF,LF,LF,LF,LF,LF
selection_method,fs,fs,fs,fs,be,be,be,be,sm,sm
seed,22,22,22,22,22,22,22,22,22,22
name,_20210326_100305_,_20210326_100305_,_20210326_100305_,_20210326_100305_,_20210326_100314_,_20210326_100314_,_20210326_100314_,_20210326_100314_,_20210326_100322_,_20210326_100322_
out_file,/home/schimdmi/src/rfe-evaluation/results/fs-with-noise/cox-gen/lf-pred/f30_s15/s4/fs__.csv,/home/schimdmi/src/rfe-evaluation/results/fs-with-noise/cox-gen/lf-pred/f30_s15/s4/fs__.csv,/home/schimdmi/src/rfe-evaluation/results/fs-with-noise/cox-gen/lf-pred/f30_s15/s4/fs__.csv,/home/schimdmi/src/rfe-evaluation/results/fs-with-noise/cox-gen/lf-pred/f30_s15/s4/fs__.csv,/home/schimdmi/src/rfe-evaluation/results/fs-with-noise/cox-gen/lf-pred/f30_s15/s4/be__.csv,/home/schimdmi/src/rfe-evaluation/results/fs-with-noise/cox-gen/lf-pred/f30_s15/s4/be__.csv,/home/schimdmi/src/rfe-evaluation/results/fs-with-noise/cox-gen/lf-pred/f30_s15/s4/be__.csv,/home/schimdmi/src/rfe-evaluation/results/fs-with-noise/cox-gen/lf-pred/f30_s15/s4/be__.csv,/home/schimdmi/src/rfe-evaluation/results/fs-with-noise/cox-gen/lf-pred/f30_s15/s4/sm__.csv,/home/schimdmi/src/rfe-evaluation/results/fs-with-noise/cox-gen/lf-pred/f30_s15/s4/sm__.csv
dump_file,/home/schimdmi/src/rfe-evaluation/results/fs-with-noise/cox-gen/lf-pred/f30_s15/s4/fs__.bin,/home/schimdmi/src/rfe-evaluation/results/fs-with-noise/cox-gen/lf-pred/f30_s15/s4/fs__.bin,/home/schimdmi/src/rfe-evaluation/results/fs-with-noise/cox-gen/lf-pred/f30_s15/s4/fs__.bin,/home/schimdmi/src/rfe-evaluation/results/fs-with-noise/cox-gen/lf-pred/f30_s15/s4/fs__.bin,/home/schimdmi/src/rfe-evaluation/results/fs-with-noise/cox-gen/lf-pred/f30_s15/s4/be__.bin,/home/schimdmi/src/rfe-evaluation/results/fs-with-noise/cox-gen/lf-pred/f30_s15/s4/be__.bin,/home/schimdmi/src/rfe-evaluation/results/fs-with-noise/cox-gen/lf-pred/f30_s15/s4/be__.bin,/home/schimdmi/src/rfe-evaluation/results/fs-with-noise/cox-gen/lf-pred/f30_s15/s4/be__.bin,/home/schimdmi/src/rfe-evaluation/results/fs-with-noise/cox-gen/lf-pred/f30_s15/s4/sm__.bin,/home/schimdmi/src/rfe-evaluation/results/fs-with-noise/cox-gen/lf-pred/f30_s15/s4/sm__.bin
verbosity,1,1,1,1,1,1,1,1,1,1
x_file,,,,,,,,,,
y_file,,,,,,,,,,
