,fs-large-coeff,fs-most-corr,fs-best-train,fs-best-cv,be-small-coeff,be-least-corr,be-best-train,be-best-cv,sm-lasso,sm-enet
mse_true,18.18974363320847,18.18974363320847,18.18974363320847,18.18974363320847,18.18974363320847,18.18974363320847,18.18974363320847,18.18974363320847,18.18974363320847,18.18974363320847
mse_estimate,4.456818131287275,3.857201549736327,4.1543869606544614,4.331872580903897,3.873939843775129,4.516298608870183,3.928701431540511,4.400192633368112,17.59427826360554,16.158473476759966
mse_diff,13.732925501921194,14.332542083472141,14.035356672554007,13.85787105230457,14.315803789433339,13.673445024338285,14.261042201667959,13.789550999840356,0.5954653696029304,2.031270156448503
all,30,30,30,30,30,30,30,30,30,30
true,15,15,15,15,15,15,15,15,15,15
selected,22,11,15,21,15,12,9,23,18,27
tp,10,9,10,10,11,10,6,13,12,15
fp,12,2,5,11,4,2,3,10,6,12
fn,5,6,5,5,4,5,9,2,3,0
tn,3,13,10,4,11,13,12,5,9,3
n_samples,200,200,200,200,200,200,200,200,200,200
n_features,30,30,30,30,30,30,30,30,30,30
n_significant,15,15,15,15,15,15,15,15,15,15
n_independent,0,0,0,0,0,0,0,0,0,0
gen_model,LF,LF,LF,LF,LF,LF,LF,LF,LF,LF
noise_mean,0.0,0.0,0.0,0.0,0.0,0.0,0.0,0.0,0.0,0.0
noise_std,4.0,4.0,4.0,4.0,4.0,4.0,4.0,4.0,4.0,4.0
feature_mean,0.0,0.0,0.0,0.0,0.0,0.0,0.0,0.0,0.0,0.0
feature_std,1.0,1.0,1.0,1.0,1.0,1.0,1.0,1.0,1.0,1.0
covariance,0.0,0.0,0.0,0.0,0.0,0.0,0.0,0.0,0.0,0.0
predictor,RF,RF,RF,RF,RF,RF,RF,RF,RF,RF
selection_method,fs,fs,fs,fs,be,be,be,be,sm,sm
seed,22,22,22,22,22,22,22,22,22,22
name,_20210319_095745_,_20210319_095745_,_20210319_095745_,_20210319_095745_,_20210319_100003_,_20210319_100003_,_20210319_100003_,_20210319_100003_,_20210319_100205_,_20210319_100205_
out_file,/home/schimdmi/src/rfe-evaluation/results/fs-with-noise/lf-gen/rf-pred/f30_s15/s4/fs__.csv,/home/schimdmi/src/rfe-evaluation/results/fs-with-noise/lf-gen/rf-pred/f30_s15/s4/fs__.csv,/home/schimdmi/src/rfe-evaluation/results/fs-with-noise/lf-gen/rf-pred/f30_s15/s4/fs__.csv,/home/schimdmi/src/rfe-evaluation/results/fs-with-noise/lf-gen/rf-pred/f30_s15/s4/fs__.csv,/home/schimdmi/src/rfe-evaluation/results/fs-with-noise/lf-gen/rf-pred/f30_s15/s4/be__.csv,/home/schimdmi/src/rfe-evaluation/results/fs-with-noise/lf-gen/rf-pred/f30_s15/s4/be__.csv,/home/schimdmi/src/rfe-evaluation/results/fs-with-noise/lf-gen/rf-pred/f30_s15/s4/be__.csv,/home/schimdmi/src/rfe-evaluation/results/fs-with-noise/lf-gen/rf-pred/f30_s15/s4/be__.csv,/home/schimdmi/src/rfe-evaluation/results/fs-with-noise/lf-gen/rf-pred/f30_s15/s4/sm__.csv,/home/schimdmi/src/rfe-evaluation/results/fs-with-noise/lf-gen/rf-pred/f30_s15/s4/sm__.csv
dump_file,/home/schimdmi/src/rfe-evaluation/results/fs-with-noise/lf-gen/rf-pred/f30_s15/s4/fs__.bin,/home/schimdmi/src/rfe-evaluation/results/fs-with-noise/lf-gen/rf-pred/f30_s15/s4/fs__.bin,/home/schimdmi/src/rfe-evaluation/results/fs-with-noise/lf-gen/rf-pred/f30_s15/s4/fs__.bin,/home/schimdmi/src/rfe-evaluation/results/fs-with-noise/lf-gen/rf-pred/f30_s15/s4/fs__.bin,/home/schimdmi/src/rfe-evaluation/results/fs-with-noise/lf-gen/rf-pred/f30_s15/s4/be__.bin,/home/schimdmi/src/rfe-evaluation/results/fs-with-noise/lf-gen/rf-pred/f30_s15/s4/be__.bin,/home/schimdmi/src/rfe-evaluation/results/fs-with-noise/lf-gen/rf-pred/f30_s15/s4/be__.bin,/home/schimdmi/src/rfe-evaluation/results/fs-with-noise/lf-gen/rf-pred/f30_s15/s4/be__.bin,/home/schimdmi/src/rfe-evaluation/results/fs-with-noise/lf-gen/rf-pred/f30_s15/s4/sm__.bin,/home/schimdmi/src/rfe-evaluation/results/fs-with-noise/lf-gen/rf-pred/f30_s15/s4/sm__.bin
verbosity,1,1,1,1,1,1,1,1,1,1
x_file,,,,,,,,,,
y_file,,,,,,,,,,
