,fs-large-coeff,fs-most-corr,fs-best-train,fs-best-cv,be-small-coeff,be-least-corr,be-best-train,be-best-cv,sm-lasso,sm-enet
mse_true,7.279581876024229,7.279581876024229,7.279581876024229,7.279581876024229,7.279581876024229,7.279581876024229,7.279581876024229,7.279581876024229,7.279581876024229,7.279581876024229
mse_estimate,3.230732607111812,2.7035240358058137,2.5285956169631096,2.4778159331769944,2.4498582357527408,2.4177332209005713,2.318989891013782,2.7452880266829265,7.340283065016596,6.267983221762026
mse_diff,4.0488492689124165,4.576057840218414,4.7509862590611185,4.801765942847235,4.829723640271488,4.861848655123657,4.9605919850104465,4.534293849341302,0.06070118899236743,1.0115986542622029
all,30,30,30,30,30,30,30,30,30,30
true,30,30,30,30,30,30,30,30,30,30
selected,20,8,12,7,12,17,7,5,19,30
tp,20,8,12,7,12,17,7,5,19,30
fp,0,0,0,0,0,0,0,0,0,0
fn,10,22,18,23,18,13,23,25,11,0
tn,0,0,0,0,0,0,0,0,0,0
n_samples,200,200,200,200,200,200,200,200,200,200
n_features,30,30,30,30,30,30,30,30,30,30
n_significant,30,30,30,30,30,30,30,30,30,30
n_independent,0,0,0,0,0,0,0,0,0,0
gen_model,LF,LF,LF,LF,LF,LF,LF,LF,LF,LF
noise_mean,0.0,0.0,0.0,0.0,0.0,0.0,0.0,0.0,0.0,0.0
noise_std,2.5,2.5,2.5,2.5,2.5,2.5,2.5,2.5,2.5,2.5
feature_mean,0.0,0.0,0.0,0.0,0.0,0.0,0.0,0.0,0.0,0.0
feature_std,1.0,1.0,1.0,1.0,1.0,1.0,1.0,1.0,1.0,1.0
covariance,0.0,0.0,0.0,0.0,0.0,0.0,0.0,0.0,0.0,0.0
predictor,RF,RF,RF,RF,RF,RF,RF,RF,RF,RF
selection_method,fs,fs,fs,fs,be,be,be,be,sm,sm
seed,22,22,22,22,22,22,22,22,22,22
name,_20210319_101616_,_20210319_101616_,_20210319_101616_,_20210319_101616_,_20210319_101826_,_20210319_101826_,_20210319_101826_,_20210319_101826_,_20210319_102026_,_20210319_102026_
out_file,/home/schimdmi/src/rfe-evaluation/results/fs-with-noise/lf-gen/rf-pred/f30_s30/s25/fs__.csv,/home/schimdmi/src/rfe-evaluation/results/fs-with-noise/lf-gen/rf-pred/f30_s30/s25/fs__.csv,/home/schimdmi/src/rfe-evaluation/results/fs-with-noise/lf-gen/rf-pred/f30_s30/s25/fs__.csv,/home/schimdmi/src/rfe-evaluation/results/fs-with-noise/lf-gen/rf-pred/f30_s30/s25/fs__.csv,/home/schimdmi/src/rfe-evaluation/results/fs-with-noise/lf-gen/rf-pred/f30_s30/s25/be__.csv,/home/schimdmi/src/rfe-evaluation/results/fs-with-noise/lf-gen/rf-pred/f30_s30/s25/be__.csv,/home/schimdmi/src/rfe-evaluation/results/fs-with-noise/lf-gen/rf-pred/f30_s30/s25/be__.csv,/home/schimdmi/src/rfe-evaluation/results/fs-with-noise/lf-gen/rf-pred/f30_s30/s25/be__.csv,/home/schimdmi/src/rfe-evaluation/results/fs-with-noise/lf-gen/rf-pred/f30_s30/s25/sm__.csv,/home/schimdmi/src/rfe-evaluation/results/fs-with-noise/lf-gen/rf-pred/f30_s30/s25/sm__.csv
dump_file,/home/schimdmi/src/rfe-evaluation/results/fs-with-noise/lf-gen/rf-pred/f30_s30/s25/fs__.bin,/home/schimdmi/src/rfe-evaluation/results/fs-with-noise/lf-gen/rf-pred/f30_s30/s25/fs__.bin,/home/schimdmi/src/rfe-evaluation/results/fs-with-noise/lf-gen/rf-pred/f30_s30/s25/fs__.bin,/home/schimdmi/src/rfe-evaluation/results/fs-with-noise/lf-gen/rf-pred/f30_s30/s25/fs__.bin,/home/schimdmi/src/rfe-evaluation/results/fs-with-noise/lf-gen/rf-pred/f30_s30/s25/be__.bin,/home/schimdmi/src/rfe-evaluation/results/fs-with-noise/lf-gen/rf-pred/f30_s30/s25/be__.bin,/home/schimdmi/src/rfe-evaluation/results/fs-with-noise/lf-gen/rf-pred/f30_s30/s25/be__.bin,/home/schimdmi/src/rfe-evaluation/results/fs-with-noise/lf-gen/rf-pred/f30_s30/s25/be__.bin,/home/schimdmi/src/rfe-evaluation/results/fs-with-noise/lf-gen/rf-pred/f30_s30/s25/sm__.bin,/home/schimdmi/src/rfe-evaluation/results/fs-with-noise/lf-gen/rf-pred/f30_s30/s25/sm__.bin
verbosity,1,1,1,1,1,1,1,1,1,1
x_file,,,,,,,,,,
y_file,,,,,,,,,,
