,fs-large-coeff,fs-most-corr,fs-best-train,fs-best-cv,be-small-coeff,be-least-corr,be-best-train,be-best-cv,sm-lasso,sm-enet
mse_true,0.9587234367635524,0.9587234367635524,0.9587234367635524,0.9587234367635524,0.9587234367635524,0.9587234367635524,0.9587234367635524,0.9587234367635524,0.9587234367635524,0.9587234367635524
mse_estimate,0.8967953037414602,0.8722162374543722,0.8845581838508083,0.9253458445042502,0.8885771075412674,0.8947516510474968,0.8973007177804042,0.9233815732184221,0.8722186469322823,0.8722176825033375
mse_diff,0.06192813302209221,0.08650719930918027,0.07416525291274412,0.03337759225930226,0.07014632922228503,0.06397178571605566,0.06142271898314822,0.03534186354513036,0.08650478983127008,0.0865057542602149
all,100,100,100,100,100,100,100,100,100,100
true,50,50,50,50,50,50,50,50,50,50
selected,56,100,64,48,63,96,55,47,100,100
tp,47,50,47,45,47,49,47,45,50,50
fp,9,50,17,3,16,47,8,2,50,50
fn,3,0,3,5,3,1,3,5,0,0
tn,41,0,33,47,34,3,42,48,0,0
n_samples,1000,1000,1000,1000,1000,1000,1000,1000,1000,1000
n_features,100,100,100,100,100,100,100,100,100,100
n_significant,50,50,50,50,50,50,50,50,50,50
n_independent,0,0,0,0,0,0,0,0,0,0
gen_model,LF,LF,LF,LF,LF,LF,LF,LF,LF,LF
noise_mean,0.0,0.0,0.0,0.0,0.0,0.0,0.0,0.0,0.0,0.0
noise_std,1.0,1.0,1.0,1.0,1.0,1.0,1.0,1.0,1.0,1.0
feature_mean,0.0,0.0,0.0,0.0,0.0,0.0,0.0,0.0,0.0,0.0
feature_std,1.0,1.0,1.0,1.0,1.0,1.0,1.0,1.0,1.0,1.0
covariance,0.9,0.9,0.9,0.9,0.9,0.9,0.9,0.9,0.9,0.9
predictor,LF,LF,LF,LF,LF,LF,LF,LF,LF,LF
selection_method,fs,fs,fs,fs,be,be,be,be,sm,sm
seed,22,22,22,22,22,22,22,22,22,22
name,_20210225_122411_,_20210225_122411_,_20210225_122411_,_20210225_122411_,_20210225_122614_,_20210225_122614_,_20210225_122614_,_20210225_122614_,_20210225_122803_,_20210225_122803_
out_file,/home/schimdmi/src/rfe-evaluation/results/fs-feature-noise/lf-gen/lf-pred/only-correlated-cov/f100_s50_rho0.9/fs__.csv,/home/schimdmi/src/rfe-evaluation/results/fs-feature-noise/lf-gen/lf-pred/only-correlated-cov/f100_s50_rho0.9/fs__.csv,/home/schimdmi/src/rfe-evaluation/results/fs-feature-noise/lf-gen/lf-pred/only-correlated-cov/f100_s50_rho0.9/fs__.csv,/home/schimdmi/src/rfe-evaluation/results/fs-feature-noise/lf-gen/lf-pred/only-correlated-cov/f100_s50_rho0.9/fs__.csv,/home/schimdmi/src/rfe-evaluation/results/fs-feature-noise/lf-gen/lf-pred/only-correlated-cov/f100_s50_rho0.9/be__.csv,/home/schimdmi/src/rfe-evaluation/results/fs-feature-noise/lf-gen/lf-pred/only-correlated-cov/f100_s50_rho0.9/be__.csv,/home/schimdmi/src/rfe-evaluation/results/fs-feature-noise/lf-gen/lf-pred/only-correlated-cov/f100_s50_rho0.9/be__.csv,/home/schimdmi/src/rfe-evaluation/results/fs-feature-noise/lf-gen/lf-pred/only-correlated-cov/f100_s50_rho0.9/be__.csv,/home/schimdmi/src/rfe-evaluation/results/fs-feature-noise/lf-gen/lf-pred/only-correlated-cov/f100_s50_rho0.9/sm__.csv,/home/schimdmi/src/rfe-evaluation/results/fs-feature-noise/lf-gen/lf-pred/only-correlated-cov/f100_s50_rho0.9/sm__.csv
dump_file,/home/schimdmi/src/rfe-evaluation/results/fs-feature-noise/lf-gen/lf-pred/only-correlated-cov/f100_s50_rho0.9/fs__.bin,/home/schimdmi/src/rfe-evaluation/results/fs-feature-noise/lf-gen/lf-pred/only-correlated-cov/f100_s50_rho0.9/fs__.bin,/home/schimdmi/src/rfe-evaluation/results/fs-feature-noise/lf-gen/lf-pred/only-correlated-cov/f100_s50_rho0.9/fs__.bin,/home/schimdmi/src/rfe-evaluation/results/fs-feature-noise/lf-gen/lf-pred/only-correlated-cov/f100_s50_rho0.9/fs__.bin,/home/schimdmi/src/rfe-evaluation/results/fs-feature-noise/lf-gen/lf-pred/only-correlated-cov/f100_s50_rho0.9/be__.bin,/home/schimdmi/src/rfe-evaluation/results/fs-feature-noise/lf-gen/lf-pred/only-correlated-cov/f100_s50_rho0.9/be__.bin,/home/schimdmi/src/rfe-evaluation/results/fs-feature-noise/lf-gen/lf-pred/only-correlated-cov/f100_s50_rho0.9/be__.bin,/home/schimdmi/src/rfe-evaluation/results/fs-feature-noise/lf-gen/lf-pred/only-correlated-cov/f100_s50_rho0.9/be__.bin,/home/schimdmi/src/rfe-evaluation/results/fs-feature-noise/lf-gen/lf-pred/only-correlated-cov/f100_s50_rho0.9/sm__.bin,/home/schimdmi/src/rfe-evaluation/results/fs-feature-noise/lf-gen/lf-pred/only-correlated-cov/f100_s50_rho0.9/sm__.bin
verbosity,1,1,1,1,1,1,1,1,1,1
x_file,,,,,,,,,,
y_file,,,,,,,,,,
