,fs-large-coeff,fs-most-corr,fs-best-train,fs-best-cv,be-small-coeff,be-least-corr,be-best-train,be-best-cv,sm-lasso,sm-enet
mse_true,1.0151949559490705,1.0151949559490705,1.0151949559490705,1.0151949559490705,1.0151949559490705,1.0151949559490705,1.0151949559490705,1.0151949559490705,1.0151949559490705,1.0151949559490705
mse_estimate,6.157461452862719e+18,6.157461452862719e+18,6.157461452862719e+18,6.101983964400898e+18,6.185380949146223e+18,6.157461452862719e+18,6.195949350258861e+18,6.165535181324369e+18,5.524015770237392e+18,6.003499313634636e+18
mse_diff,6.157461452862719e+18,6.157461452862719e+18,6.157461452862719e+18,6.101983964400898e+18,6.185380949146223e+18,6.157461452862719e+18,6.195949350258861e+18,6.165535181324369e+18,5.524015770237392e+18,6.003499313634636e+18
all,100,100,100,100,100,100,100,100,100,100
true,70,70,70,70,70,70,70,70,70,70
selected,1,1,1,14,4,1,3,6,100,100
tp,1,1,1,12,1,1,1,4,70,70
fp,0,0,0,2,3,0,2,2,30,30
fn,69,69,69,58,69,69,69,66,0,0
tn,30,30,30,28,27,30,28,28,0,0
n_samples,1000,1000,1000,1000,1000,1000,1000,1000,1000,1000
n_features,100,100,100,100,100,100,100,100,100,100
n_significant,70,70,70,70,70,70,70,70,70,70
n_independent,0,0,0,0,0,0,0,0,0,0
gen_model,Cox,Cox,Cox,Cox,Cox,Cox,Cox,Cox,Cox,Cox
noise_mean,0.0,0.0,0.0,0.0,0.0,0.0,0.0,0.0,0.0,0.0
noise_std,1.0,1.0,1.0,1.0,1.0,1.0,1.0,1.0,1.0,1.0
feature_mean,0.0,0.0,0.0,0.0,0.0,0.0,0.0,0.0,0.0,0.0
feature_std,1.0,1.0,1.0,1.0,1.0,1.0,1.0,1.0,1.0,1.0
covariance,0.5,0.5,0.5,0.5,0.5,0.5,0.5,0.5,0.5,0.5
predictor,LF,LF,LF,LF,LF,LF,LF,LF,LF,LF
selection_method,fs,fs,fs,fs,be,be,be,be,sm,sm
seed,22,22,22,22,22,22,22,22,22,22
name,_20210326_102819_,_20210326_102819_,_20210326_102819_,_20210326_102819_,_20210326_103037_,_20210326_103037_,_20210326_103037_,_20210326_103037_,_20210326_103308_,_20210326_103308_
out_file,/home/schimdmi/src/rfe-evaluation/results/fs-feature-noise/cox-gen/lf-pred/only-correlated/f100_s70_i0/fs__.csv,/home/schimdmi/src/rfe-evaluation/results/fs-feature-noise/cox-gen/lf-pred/only-correlated/f100_s70_i0/fs__.csv,/home/schimdmi/src/rfe-evaluation/results/fs-feature-noise/cox-gen/lf-pred/only-correlated/f100_s70_i0/fs__.csv,/home/schimdmi/src/rfe-evaluation/results/fs-feature-noise/cox-gen/lf-pred/only-correlated/f100_s70_i0/fs__.csv,/home/schimdmi/src/rfe-evaluation/results/fs-feature-noise/cox-gen/lf-pred/only-correlated/f100_s70_i0/be__.csv,/home/schimdmi/src/rfe-evaluation/results/fs-feature-noise/cox-gen/lf-pred/only-correlated/f100_s70_i0/be__.csv,/home/schimdmi/src/rfe-evaluation/results/fs-feature-noise/cox-gen/lf-pred/only-correlated/f100_s70_i0/be__.csv,/home/schimdmi/src/rfe-evaluation/results/fs-feature-noise/cox-gen/lf-pred/only-correlated/f100_s70_i0/be__.csv,/home/schimdmi/src/rfe-evaluation/results/fs-feature-noise/cox-gen/lf-pred/only-correlated/f100_s70_i0/sm__.csv,/home/schimdmi/src/rfe-evaluation/results/fs-feature-noise/cox-gen/lf-pred/only-correlated/f100_s70_i0/sm__.csv
dump_file,/home/schimdmi/src/rfe-evaluation/results/fs-feature-noise/cox-gen/lf-pred/only-correlated/f100_s70_i0/fs__.bin,/home/schimdmi/src/rfe-evaluation/results/fs-feature-noise/cox-gen/lf-pred/only-correlated/f100_s70_i0/fs__.bin,/home/schimdmi/src/rfe-evaluation/results/fs-feature-noise/cox-gen/lf-pred/only-correlated/f100_s70_i0/fs__.bin,/home/schimdmi/src/rfe-evaluation/results/fs-feature-noise/cox-gen/lf-pred/only-correlated/f100_s70_i0/fs__.bin,/home/schimdmi/src/rfe-evaluation/results/fs-feature-noise/cox-gen/lf-pred/only-correlated/f100_s70_i0/be__.bin,/home/schimdmi/src/rfe-evaluation/results/fs-feature-noise/cox-gen/lf-pred/only-correlated/f100_s70_i0/be__.bin,/home/schimdmi/src/rfe-evaluation/results/fs-feature-noise/cox-gen/lf-pred/only-correlated/f100_s70_i0/be__.bin,/home/schimdmi/src/rfe-evaluation/results/fs-feature-noise/cox-gen/lf-pred/only-correlated/f100_s70_i0/be__.bin,/home/schimdmi/src/rfe-evaluation/results/fs-feature-noise/cox-gen/lf-pred/only-correlated/f100_s70_i0/sm__.bin,/home/schimdmi/src/rfe-evaluation/results/fs-feature-noise/cox-gen/lf-pred/only-correlated/f100_s70_i0/sm__.bin
verbosity,1,1,1,1,1,1,1,1,1,1
x_file,,,,,,,,,,
y_file,,,,,,,,,,
