,fs-large-coeff,fs-most-corr,fs-best-train,fs-best-cv,be-small-coeff,be-least-corr,be-best-train,be-best-cv,sm-lasso,sm-enet
mse_true,0.9912207377628204,0.9912207377628204,0.9912207377628204,0.9912207377628204,0.9912207377628204,0.9912207377628204,0.9912207377628204,0.9912207377628204,0.9912207377628204,0.9912207377628204
mse_estimate,0.8841077657226201,0.8836955110379684,0.8954564183147722,0.8833080432420267,0.883353864168243,0.8836955110379681,0.8911643135332165,0.8928952287312305,0.8830866645507915,0.8830864240173414
mse_diff,0.10711297204020032,0.10752522672485199,0.0957643194480482,0.10791269452079366,0.10786687359457736,0.10752522672485232,0.10005642422960392,0.09832550903158987,0.10813407321202884,0.108134313745479
all,100,100,100,100,100,100,100,100,100,100
true,90,90,90,90,90,90,90,90,90,90
selected,92,99,84,99,95,99,85,89,100,100
tp,87,89,84,89,88,89,85,87,90,90
fp,5,10,0,10,7,10,0,2,10,10
fn,3,1,6,1,2,1,5,3,0,0
tn,5,0,10,0,3,0,10,8,0,0
n_samples,1000,1000,1000,1000,1000,1000,1000,1000,1000,1000
n_features,100,100,100,100,100,100,100,100,100,100
n_significant,90,90,90,90,90,90,90,90,90,90
n_independent,10,10,10,10,10,10,10,10,10,10
gen_model,LF,LF,LF,LF,LF,LF,LF,LF,LF,LF
noise_mean,0.0,0.0,0.0,0.0,0.0,0.0,0.0,0.0,0.0,0.0
noise_std,1.0,1.0,1.0,1.0,1.0,1.0,1.0,1.0,1.0,1.0
feature_mean,0.0,0.0,0.0,0.0,0.0,0.0,0.0,0.0,0.0,0.0
feature_std,1.0,1.0,1.0,1.0,1.0,1.0,1.0,1.0,1.0,1.0
covariance,0.5,0.5,0.5,0.5,0.5,0.5,0.5,0.5,0.5,0.5
predictor,LF,LF,LF,LF,LF,LF,LF,LF,LF,LF
selection_method,fs,fs,fs,fs,be,be,be,be,sm,sm
seed,22,22,22,22,22,22,22,22,22,22
name,_20210225_111521_,_20210225_111521_,_20210225_111521_,_20210225_111521_,_20210225_111644_,_20210225_111644_,_20210225_111644_,_20210225_111644_,_20210225_111759_,_20210225_111759_
out_file,/home/schimdmi/src/rfe-evaluation/results/fs-feature-noise/lf-gen/lf-pred/f100_s90_i10/fs__.csv,/home/schimdmi/src/rfe-evaluation/results/fs-feature-noise/lf-gen/lf-pred/f100_s90_i10/fs__.csv,/home/schimdmi/src/rfe-evaluation/results/fs-feature-noise/lf-gen/lf-pred/f100_s90_i10/fs__.csv,/home/schimdmi/src/rfe-evaluation/results/fs-feature-noise/lf-gen/lf-pred/f100_s90_i10/fs__.csv,/home/schimdmi/src/rfe-evaluation/results/fs-feature-noise/lf-gen/lf-pred/f100_s90_i10/be__.csv,/home/schimdmi/src/rfe-evaluation/results/fs-feature-noise/lf-gen/lf-pred/f100_s90_i10/be__.csv,/home/schimdmi/src/rfe-evaluation/results/fs-feature-noise/lf-gen/lf-pred/f100_s90_i10/be__.csv,/home/schimdmi/src/rfe-evaluation/results/fs-feature-noise/lf-gen/lf-pred/f100_s90_i10/be__.csv,/home/schimdmi/src/rfe-evaluation/results/fs-feature-noise/lf-gen/lf-pred/f100_s90_i10/sm__.csv,/home/schimdmi/src/rfe-evaluation/results/fs-feature-noise/lf-gen/lf-pred/f100_s90_i10/sm__.csv
dump_file,/home/schimdmi/src/rfe-evaluation/results/fs-feature-noise/lf-gen/lf-pred/f100_s90_i10/fs__.bin,/home/schimdmi/src/rfe-evaluation/results/fs-feature-noise/lf-gen/lf-pred/f100_s90_i10/fs__.bin,/home/schimdmi/src/rfe-evaluation/results/fs-feature-noise/lf-gen/lf-pred/f100_s90_i10/fs__.bin,/home/schimdmi/src/rfe-evaluation/results/fs-feature-noise/lf-gen/lf-pred/f100_s90_i10/fs__.bin,/home/schimdmi/src/rfe-evaluation/results/fs-feature-noise/lf-gen/lf-pred/f100_s90_i10/be__.bin,/home/schimdmi/src/rfe-evaluation/results/fs-feature-noise/lf-gen/lf-pred/f100_s90_i10/be__.bin,/home/schimdmi/src/rfe-evaluation/results/fs-feature-noise/lf-gen/lf-pred/f100_s90_i10/be__.bin,/home/schimdmi/src/rfe-evaluation/results/fs-feature-noise/lf-gen/lf-pred/f100_s90_i10/be__.bin,/home/schimdmi/src/rfe-evaluation/results/fs-feature-noise/lf-gen/lf-pred/f100_s90_i10/sm__.bin,/home/schimdmi/src/rfe-evaluation/results/fs-feature-noise/lf-gen/lf-pred/f100_s90_i10/sm__.bin
verbosity,1,1,1,1,1,1,1,1,1,1
x_file,,,,,,,,,,
y_file,,,,,,,,,,
